functionalTB.vcd
$version Generated by VerilatedVcd $end
$timescale 1ps $end
 $scope module TOP $end
  $scope module functionalTB $end
   $var wire 1 H" clk $end
   $var wire 1 I" rst $end
   $var wire 1 J" perf_print $end
   $var wire 37 # checks[0] [36:0] $end
   $var wire 37 % checks[1] [36:0] $end
   $var wire 37 ' checks[2] [36:0] $end
   $var wire 37 ) checks[3] [36:0] $end
   $var wire 37 + checks[4] [36:0] $end
   $var wire 37 - checks[5] [36:0] $end
   $var wire 37 / checks[6] [36:0] $end
   $var wire 37 1 checks[7] [36:0] $end
   $var wire 32 K" prev_pc [31:0] $end
   $var wire 32 L" stable_count [31:0] $end
   $var wire 32 M" pass_count [31:0] $end
   $var wire 32 N" fail_count [31:0] $end
   $var wire 32 O" run_checks__Vstatic__actual [31:0] $end
   $scope module dut $end
    $var wire 32 R" DATA_WIDTH [31:0] $end
    $var wire 32 R" ADDR_WIDTH [31:0] $end
    $var wire 32 S" LATENCY [31:0] $end
    $var wire 32 T" MEM_DEPTH [31:0] $end
    $var wire 32 U" ICACHE_SIZE [31:0] $end
    $var wire 32 U" DCACHE_SIZE [31:0] $end
    $var wire 32 V" ICACHE_WAYS [31:0] $end
    $var wire 32 V" DCACHE_WAYS [31:0] $end
    $var wire 1 H" clk $end
    $var wire 1 I" rst $end
    $var wire 32 3 pcCurrent [31:0] $end
    $var wire 32 4 nextPc [31:0] $end
    $var wire 32 5 pcPlus4IF [31:0] $end
    $var wire 32 6 ic_inst [31:0] $end
    $var wire 1 7 ic_ready $end
    $var wire 1 8 pcWrite $end
    $var wire 1 8 pcWrite_final $end
    $var wire 1 W" IFflush $end
    $var wire 1 9 hazardSel $end
    $var wire 1 : IFIDwrite $end
    $var wire 1 : IFIDwrite_final $end
    $var wire 1 W" pcSrcID $end
    $var wire 32 ; regData1ID [31:0] $end
    $var wire 32 < regData2ID [31:0] $end
    $var wire 32 = signExtImmID [31:0] $end
    $var wire 32 > branchTargetID [31:0] $end
    $var wire 32 ? instID [31:0] $end
    $var wire 32 @ pcPlus4ID [31:0] $end
    $var wire 2 A WBID [1:0] $end
    $var wire 3 B MEMID [2:0] $end
    $var wire 5 C EXID [4:0] $end
    $var wire 10 D finalCRLTID [9:0] $end
    $var wire 2 E WBEX [1:0] $end
    $var wire 3 F MEMEX [2:0] $end
    $var wire 5 G EXEX [4:0] $end
    $var wire 32 H regData1EX [31:0] $end
    $var wire 32 I regData2EX [31:0] $end
    $var wire 32 J signExtImmEX [31:0] $end
    $var wire 5 K RsEX [4:0] $end
    $var wire 5 L RtEX [4:0] $end
    $var wire 5 M RdEX [4:0] $end
    $var wire 6 N FuncEX [5:0] $end
    $var wire 2 O forwardA [1:0] $end
    $var wire 2 P forwardB [1:0] $end
    $var wire 32 Q AluMuxAout [31:0] $end
    $var wire 32 R AluMuxBFwd [31:0] $end
    $var wire 32 S AluInb [31:0] $end
    $var wire 32 T AluResultEX [31:0] $end
    $var wire 4 U AluCtrlEX [3:0] $end
    $var wire 5 V WriteRegEX [4:0] $end
    $var wire 32 W branchTargetEX [31:0] $end
    $var wire 1 X pcSrcEX $end
    $var wire 1 Y IFflushEX $end
    $var wire 2 Z WBMEM [1:0] $end
    $var wire 3 [ MEMMEM [2:0] $end
    $var wire 32 \ AluResMEM [31:0] $end
    $var wire 32 ] writeDataMEM [31:0] $end
    $var wire 5 ^ writeRegMEM [4:0] $end
    $var wire 32 _ dc_rdata [31:0] $end
    $var wire 1 ` dc_ready $end
    $var wire 1 a mem_read_MEM $end
    $var wire 1 b mem_write_MEM $end
    $var wire 2 c WBWB [1:0] $end
    $var wire 32 d AluResWB [31:0] $end
    $var wire 32 e MEMDataWB [31:0] $end
    $var wire 5 f writeRegWB [4:0] $end
    $var wire 32 g finalResultWB [31:0] $end
    $var wire 1 h ic_stall $end
    $var wire 1 i dc_stall $end
    $var wire 1 j dc_done $end
    $var wire 32 k ic_mem_addr [31:0] $end
    $var wire 32 l ic_mem_rdata [31:0] $end
    $var wire 1 m ic_mem_read $end
    $var wire 1 n ic_mem_ready $end
    $var wire 32 o dc_mem_addr [31:0] $end
    $var wire 32 l dc_mem_rdata [31:0] $end
    $var wire 32 p dc_mem_wdata [31:0] $end
    $var wire 1 q dc_mem_read $end
    $var wire 1 r dc_mem_write $end
    $var wire 1 s dc_mem_ready $end
    $var wire 1 t umem_read $end
    $var wire 1 u umem_write $end
    $var wire 1 v umem_ready $end
    $var wire 32 w umem_addr [31:0] $end
    $var wire 32 x umem_wdata [31:0] $end
    $var wire 32 l umem_rdata [31:0] $end
    $var wire 1 y regWrite_en $end
    $var wire 1 z dc_ready_eff $end
    $var wire 32 { dc_rdata_latch [31:0] $end
    $var wire 1 | stall_WB $end
    $scope module ALUDec $end
     $var wire 6 N Func [5:0] $end
     $var wire 3 } AluOp [2:0] $end
     $var wire 4 U AluControl [3:0] $end
    $upscope $end
    $scope module ALUUnit $end
     $var wire 32 Q A [31:0] $end
     $var wire 32 S B [31:0] $end
     $var wire 4 U AluControl [3:0] $end
     $var wire 32 T Result [31:0] $end
     $var wire 1 ~ Zero $end
     $var wire 1 !! Overflow $end
     $var wire 32 "! sum [31:0] $end
     $var wire 32 #! B_sum_operand [31:0] $end
     $var wire 1 $! carry_out $end
    $upscope $end
    $scope module CU $end
     $var wire 6 %! OpCode [5:0] $end
     $var wire 2 A wb_bundle [1:0] $end
     $var wire 3 B m_bundle [2:0] $end
     $var wire 5 C ex_bundle [4:0] $end
     $var wire 1 &! RegWrite $end
     $var wire 1 '! MemtoReg $end
     $var wire 1 (! Branch $end
     $var wire 1 )! MemRead $end
     $var wire 1 *! MemWrite $end
     $var wire 1 +! RegDst $end
     $var wire 1 ,! ALUSrc $end
     $var wire 3 -! ALUOp [2:0] $end
    $upscope $end
    $scope module D_CACHE $end
     $var wire 32 R" ADDR_WIDTH [31:0] $end
     $var wire 32 R" DATA_WIDTH [31:0] $end
     $var wire 32 U" CACHE_SIZE [31:0] $end
     $var wire 32 S" LATENCY [31:0] $end
     $var wire 32 V" NUM_WAYS [31:0] $end
     $var wire 1 H" clk $end
     $var wire 1 I" rst $end
     $var wire 32 \ cpu_addr [31:0] $end
     $var wire 32 ] cpu_wdata [31:0] $end
     $var wire 1 .! cpu_read $end
     $var wire 1 /! cpu_write $end
     $var wire 32 _ cpu_rdata [31:0] $end
     $var wire 1 ` cpu_ready $end
     $var wire 32 o mem_addr [31:0] $end
     $var wire 32 p mem_wdata [31:0] $end
     $var wire 1 q mem_read $end
     $var wire 1 r mem_write $end
     $var wire 32 l mem_rdata [31:0] $end
     $var wire 1 s mem_ready $end
     $var wire 1 q dcache_req_valid $end
     $var wire 32 o dcache_req_addr [31:0] $end
     $var wire 32 p dcache_req_wdata [31:0] $end
     $var wire 1 r dcache_req_write $end
     $var wire 32 l dcache_req_rdata [31:0] $end
     $var wire 1 s dcache_req_ready $end
     $scope module ctrl $end
      $var wire 32 R" ADDR_WIDTH [31:0] $end
      $var wire 32 R" DATA_WIDTH [31:0] $end
      $var wire 32 U" CACHE_SIZE [31:0] $end
      $var wire 32 V" NUM_WAYS [31:0] $end
      $var wire 1 H" clk $end
      $var wire 1 I" rst $end
      $var wire 32 \ cpu_addr [31:0] $end
      $var wire 32 ] cpu_wdata [31:0] $end
      $var wire 1 .! cpu_read $end
      $var wire 1 /! cpu_write $end
      $var wire 32 _ cpu_rdata [31:0] $end
      $var wire 1 ` cpu_ready $end
      $var wire 32 o mem_addr [31:0] $end
      $var wire 32 p mem_wdata [31:0] $end
      $var wire 1 q mem_read $end
      $var wire 1 r mem_write $end
      $var wire 32 l mem_rdata [31:0] $end
      $var wire 1 s mem_ready $end
      $var wire 32 X" NUM_SETS [31:0] $end
      $var wire 32 Y" SET_BITS [31:0] $end
      $var wire 32 Z" TAG_BITS [31:0] $end
      $var wire 32 [" WAY_BITS [31:0] $end
      $var wire 32 0! addr_reg [31:0] $end
      $var wire 32 1! wdata_reg [31:0] $end
      $var wire 1 2! is_read_op $end
      $var wire 1 3! is_write_op $end
      $var wire 23 4! fill_tag [22:0] $end
      $var wire 7 5! fill_set [6:0] $end
      $var wire 1 6! active_way [0:0] $end
      $var wire 3 7! state [2:0] $end
      $var wire 3 8! next_state [2:0] $end
      $var wire 32 9! addr_active [31:0] $end
      $var wire 23 :! current_tag [22:0] $end
      $var wire 7 ;! current_set [6:0] $end
      $var wire 2 <! way_hit [1:0] $end
      $var wire 1 =! cacheHit $end
      $var wire 1 >! hit_way_index [0:0] $end
      $var wire 1 ?! victim_way [0:0] $end
      $var wire 2 @! valid_ways_current [1:0] $end
      $var wire 1 A! lru_update_en $end
      $var wire 1 B! lru_access_way [0:0] $end
      $scope module lru $end
       $var wire 32 V" NUM_WAYS [31:0] $end
       $var wire 32 X" NUM_SETS [31:0] $end
       $var wire 1 H" clk $end
       $var wire 1 I" rst $end
       $var wire 1 B! access_way [0:0] $end
       $var wire 7 ;! set_idx [6:0] $end
       $var wire 1 A! update $end
       $var wire 2 @! valid_ways [1:0] $end
       $var wire 1 ?! victim_way [0:0] $end
       $var wire 32 \" TREE_DEPTH [31:0] $end
       $scope module unnamedblk1 $end
        $var wire 32 C! temp_node [31:0] $end
        $scope module unnamedblk2 $end
         $var wire 32 ]" i [31:0] $end
        $upscope $end
        $scope module unnamedblk3 $end
         $var wire 32 \" j [31:0] $end
        $upscope $end
       $upscope $end
       $scope module unnamedblk4 $end
        $var wire 32 D! temp_node [31:0] $end
        $scope module unnamedblk5 $end
         $var wire 32 E! iterator [31:0] $end
        $upscope $end
       $upscope $end
      $upscope $end
      $scope module unnamedblk1 $end
       $var wire 32 ^" i [31:0] $end
      $upscope $end
     $upscope $end
    $upscope $end
    $scope module ICACHE $end
     $var wire 32 R" ADDR_WIDTH [31:0] $end
     $var wire 32 R" DATA_WIDTH [31:0] $end
     $var wire 32 U" CACHE_SIZE [31:0] $end
     $var wire 32 S" LATENCY [31:0] $end
     $var wire 32 V" NUM_WAYS [31:0] $end
     $var wire 1 H" clk $end
     $var wire 1 I" rst $end
     $var wire 32 3 cpu_addr [31:0] $end
     $var wire 1 _" cpu_read $end
     $var wire 32 6 cpu_rdata [31:0] $end
     $var wire 1 7 cpu_ready $end
     $var wire 32 k mem_addr [31:0] $end
     $var wire 1 m mem_read $end
     $var wire 32 l mem_rdata [31:0] $end
     $var wire 1 n mem_ready $end
     $var wire 32 k m_addr [31:0] $end
     $var wire 32 l m_rdata [31:0] $end
     $var wire 1 m m_read $end
     $var wire 1 n m_ready $end
     $scope module ctrl $end
      $var wire 32 R" ADDR_WIDTH [31:0] $end
      $var wire 32 R" DATA_WIDTH [31:0] $end
      $var wire 32 U" CACHE_SIZE [31:0] $end
      $var wire 32 V" NUM_WAYS [31:0] $end
      $var wire 1 H" clk $end
      $var wire 1 I" rst $end
      $var wire 32 3 cpu_addr [31:0] $end
      $var wire 1 _" cpu_read $end
      $var wire 32 6 cpu_rdata [31:0] $end
      $var wire 1 7 cpu_ready $end
      $var wire 32 k mem_addr [31:0] $end
      $var wire 1 m mem_read $end
      $var wire 32 l mem_rdata [31:0] $end
      $var wire 1 n mem_ready $end
      $var wire 32 X" NUM_SETS [31:0] $end
      $var wire 32 Y" SET_BITS [31:0] $end
      $var wire 32 Z" TAG_BITS [31:0] $end
      $var wire 32 [" WAY_BITS [31:0] $end
      $var wire 32 F! addr_reg [31:0] $end
      $var wire 32 G! addr_active [31:0] $end
      $var wire 23 H! current_tag [22:0] $end
      $var wire 7 I! current_set [6:0] $end
      $var wire 2 J! way_hit [1:0] $end
      $var wire 1 K! cacheHit $end
      $var wire 1 L! hit_way_index [0:0] $end
      $var wire 2 M! valid_vec [1:0] $end
      $var wire 1 N! victim_way [0:0] $end
      $var wire 1 O! lru_update $end
      $var wire 2 P! state [1:0] $end
      $var wire 1 Q! active_way [0:0] $end
      $var wire 23 R! fill_tag [22:0] $end
      $var wire 7 S! fill_set [6:0] $end
      $var wire 32 6 cpu_rdata_reg [31:0] $end
      $scope module lru $end
       $var wire 32 V" NUM_WAYS [31:0] $end
       $var wire 32 X" NUM_SETS [31:0] $end
       $var wire 1 H" clk $end
       $var wire 1 I" rst $end
       $var wire 1 L! access_way [0:0] $end
       $var wire 7 I! set_idx [6:0] $end
       $var wire 1 O! update $end
       $var wire 2 M! valid_ways [1:0] $end
       $var wire 1 N! victim_way [0:0] $end
       $var wire 32 \" TREE_DEPTH [31:0] $end
       $scope module unnamedblk1 $end
        $var wire 32 T! temp_node [31:0] $end
        $scope module unnamedblk2 $end
         $var wire 32 ]" i [31:0] $end
        $upscope $end
        $scope module unnamedblk3 $end
         $var wire 32 \" j [31:0] $end
        $upscope $end
       $upscope $end
       $scope module unnamedblk4 $end
        $var wire 32 U! temp_node [31:0] $end
        $scope module unnamedblk5 $end
         $var wire 32 V! iterator [31:0] $end
        $upscope $end
       $upscope $end
      $upscope $end
      $scope module unnamedblk1 $end
       $var wire 32 P" w [31:0] $end
       $scope module unnamedblk2 $end
        $var wire 32 Q" s [31:0] $end
       $upscope $end
      $upscope $end
      $scope module unnamedblk3 $end
       $var wire 32 ^" i [31:0] $end
      $upscope $end
     $upscope $end
    $upscope $end
    $scope module MemoryArbitrator_instance $end
     $var wire 1 H" clk $end
     $var wire 1 I" rst $end
     $var wire 1 m ic_read $end
     $var wire 32 k ic_addr [31:0] $end
     $var wire 1 n ic_ready $end
     $var wire 32 l ic_rdata [31:0] $end
     $var wire 1 q dc_read $end
     $var wire 1 r dc_write $end
     $var wire 32 o dc_addr [31:0] $end
     $var wire 32 p dc_wdata [31:0] $end
     $var wire 1 s dc_ready $end
     $var wire 32 l dc_rdata [31:0] $end
     $var wire 1 t umem_read $end
     $var wire 1 u umem_write $end
     $var wire 32 w umem_addr [31:0] $end
     $var wire 32 x umem_wdata [31:0] $end
     $var wire 1 v umem_ready $end
     $var wire 32 l umem_rdata [31:0] $end
     $var wire 2 W! state [1:0] $end
     $var wire 2 X! next_state [1:0] $end
    $upscope $end
    $scope module Reg_Files $end
     $var wire 1 H" clk $end
     $var wire 1 I" rst $end
     $var wire 1 y RegWrite $end
     $var wire 5 Y! ReadReg1 [4:0] $end
     $var wire 5 Z! ReadReg2 [4:0] $end
     $var wire 5 f WriteReg [4:0] $end
     $var wire 32 ; ReadData1 [31:0] $end
     $var wire 32 < ReadData2 [31:0] $end
     $var wire 32 g WriteData [31:0] $end
     $var wire 32 [! Register[0] [31:0] $end
     $var wire 32 \! Register[1] [31:0] $end
     $var wire 32 ]! Register[2] [31:0] $end
     $var wire 32 ^! Register[3] [31:0] $end
     $var wire 32 _! Register[4] [31:0] $end
     $var wire 32 `! Register[5] [31:0] $end
     $var wire 32 a! Register[6] [31:0] $end
     $var wire 32 b! Register[7] [31:0] $end
     $var wire 32 c! Register[8] [31:0] $end
     $var wire 32 d! Register[9] [31:0] $end
     $var wire 32 e! Register[10] [31:0] $end
     $var wire 32 f! Register[11] [31:0] $end
     $var wire 32 g! Register[12] [31:0] $end
     $var wire 32 h! Register[13] [31:0] $end
     $var wire 32 i! Register[14] [31:0] $end
     $var wire 32 j! Register[15] [31:0] $end
     $var wire 32 k! Register[16] [31:0] $end
     $var wire 32 l! Register[17] [31:0] $end
     $var wire 32 m! Register[18] [31:0] $end
     $var wire 32 n! Register[19] [31:0] $end
     $var wire 32 o! Register[20] [31:0] $end
     $var wire 32 p! Register[21] [31:0] $end
     $var wire 32 q! Register[22] [31:0] $end
     $var wire 32 r! Register[23] [31:0] $end
     $var wire 32 s! Register[24] [31:0] $end
     $var wire 32 t! Register[25] [31:0] $end
     $var wire 32 u! Register[26] [31:0] $end
     $var wire 32 v! Register[27] [31:0] $end
     $var wire 32 w! Register[28] [31:0] $end
     $var wire 32 x! Register[29] [31:0] $end
     $var wire 32 y! Register[30] [31:0] $end
     $var wire 32 z! Register[31] [31:0] $end
     $var wire 32 {! i [31:0] $end
    $upscope $end
    $scope module UnifiedMem $end
     $var wire 32 S" LATENCY [31:0] $end
     $var wire 32 R" ADDR_WIDTH [31:0] $end
     $var wire 32 R" DATA_WIDTH [31:0] $end
     $var wire 32 T" MEM_DEPTH [31:0] $end
     $var wire 1 H" clk $end
     $var wire 1 I" rst $end
     $var wire 1 t umem_read $end
     $var wire 1 u umem_write $end
     $var wire 32 w umem_addr [31:0] $end
     $var wire 32 x umem_wdata [31:0] $end
     $var wire 1 v umem_ready $end
     $var wire 32 l umem_rdata [31:0] $end
     $var wire 5 |! timer [4:0] $end
     $var wire 1 }! busy $end
    $upscope $end
    $scope module forward_unit_instance $end
     $var wire 5 K rs_EX [4:0] $end
     $var wire 5 L rt_EX [4:0] $end
     $var wire 5 ^ rd_MEM [4:0] $end
     $var wire 5 f rd_WB [4:0] $end
     $var wire 1 ~! regwrite_MEM $end
     $var wire 1 y regwrite_WB $end
     $var wire 1 !" memRead_MEM $end
     $var wire 2 O forwardA [1:0] $end
     $var wire 2 P forwardB [1:0] $end
    $upscope $end
    $scope module hdu_instance $end
     $var wire 5 Y! IF_ID_rs [4:0] $end
     $var wire 5 Z! IF_ID_rt [4:0] $end
     $var wire 5 L ID_EX_rt [4:0] $end
     $var wire 5 M ID_EX_rd [4:0] $end
     $var wire 5 ^ EX_MEM_rd [4:0] $end
     $var wire 1 "" ID_EX_regWrite $end
     $var wire 1 ~! EX_MEM_regWrite $end
     $var wire 1 y MEM_WB_regWrite $end
     $var wire 1 !" ID_EX_memRead $end
     $var wire 1 (! isBranch $end
     $var wire 1 7 ic_ready $end
     $var wire 1 z dc_ready $end
     $var wire 1 !" mem_read_EX $end
     $var wire 1 #" mem_write_EX $end
     $var wire 2 O forwardA [1:0] $end
     $var wire 2 P forwardB [1:0] $end
     $var wire 1 8 pcWrite $end
     $var wire 1 : IF_ID_write $end
     $var wire 1 9 hazardSel $end
     $var wire 1 h ic_stall $end
     $var wire 1 i dc_stall $end
     $var wire 1 $" load_use_hazard $end
     $var wire 1 %" branch_hazard_EX $end
     $var wire 1 &" branch_hazard_MEM $end
    $upscope $end
    $scope module pc $end
     $var wire 32 4 PCInput [31:0] $end
     $var wire 1 8 PCWrite $end
     $var wire 1 H" clk $end
     $var wire 1 I" reset $end
     $var wire 32 3 PCaddress [31:0] $end
     $var wire 32 3 PCRegister [31:0] $end
    $upscope $end
   $upscope $end
   $scope module perfCounter $end
    $var wire 1 H" clk $end
    $var wire 1 I" rst $end
    $var wire 1 h ic_stall $end
    $var wire 1 i dc_stall $end
    $var wire 1 7 ic_ready $end
    $var wire 1 ` dc_ready $end
    $var wire 1 '" reg_write_wb $end
    $var wire 5 f write_reg_wb [4:0] $end
    $var wire 1 a mem_read_mem $end
    $var wire 1 b mem_write_mem $end
    $var wire 1 W" branch_taken $end
    $var wire 1 (" is_branchID $end
    $var wire 1 J" perf_print $end
    $var wire 64 )" total_cycles [63:0] $end
    $var wire 64 +" instruction_retired [63:0] $end
    $var wire 64 -" ic_hits [63:0] $end
    $var wire 64 /" ic_misses [63:0] $end
    $var wire 64 1" ic_stall_cycles [63:0] $end
    $var wire 64 3" dc_hits [63:0] $end
    $var wire 64 5" dc_misses [63:0] $end
    $var wire 64 7" dc_stall_cycles [63:0] $end
    $var wire 64 9" branch_instructions [63:0] $end
    $var wire 64 ;" branch_mispredictions [63:0] $end
    $var wire 1 =" ic_stall_prev $end
    $var wire 1 >" dc_stall_prev $end
    $var wire 1 ?" branch_taken_prev $end
    $scope module unnamedblk1 $end
     $var real 64 @" CPI $end
     $var real 64 B" ic_miss_rate $end
     $var real 64 D" dc_miss_rate $end
     $var real 64 F" branch_mispredict_rate $end
    $upscope $end
   $upscope $end
  $upscope $end
 $upscope $end
$enddefinitions $end


#0
b0100000000000000000000000000000000101 #
b0100100000000000000000000000000001010 %
b0101000000000000000000000000000001111 '
b0101100000000000000000000000001101001 )
b0110100000000000000000000000000000000 +
b0111000000000000000000000000000001111 -
b0111100000000000000000000000000000000 /
b0110000000000000000000000000000001111 1
b00000000000000000000000000000000 3
b00000000000000000000000000000100 4
b00000000000000000000000000000100 5
b00000000000000000000000000000000 6
07
08
09
0:
b00000000000000000000000000000000 ;
b00000000000000000000000000000000 <
b00000000000000000000000000000000 =
b00000000000000000000000000000000 >
b00000000000000000000000000000000 ?
b00000000000000000000000000000000 @
b10 A
b000 B
b10100 C
b0000000000 D
b00 E
b000 F
b00000 G
b00000000000000000000000000000000 H
b00000000000000000000000000000000 I
b00000000000000000000000000000000 J
b00000 K
b00000 L
b00000 M
b000000 N
b00 O
b00 P
b00000000000000000000000000000000 Q
b00000000000000000000000000000000 R
b00000000000000000000000000000000 S
b00000000000000000000000000000000 T
b0010 U
b00000 V
b00000000000000000000000000000000 W
0X
0Y
b00 Z
b000 [
b00000000000000000000000000000000 \
b00000000000000000000000000000000 ]
b00000 ^
b00000000000000000000000000000000 _
0`
0a
0b
b00 c
b00000000000000000000000000000000 d
b00000000000000000000000000000000 e
b00000 f
b00000000000000000000000000000000 g
1h
0i
0j
b00000000000000000000000000000000 k
b00000000000000000000000000000000 l
0m
0n
b00000000000000000000000000000000 o
b00000000000000000000000000000000 p
0q
0r
0s
1t
0u
0v
b00000000000000000000000000000000 w
b00000000000000000000000000000000 x
0y
0z
b00000000000000000000000000000000 {
1|
b000 }
1~
0!!
b00000000000000000000000000000000 "!
b00000000000000000000000000000000 #!
0$!
b000000 %!
1&!
0'!
0(!
0)!
0*!
1+!
0,!
b010 -!
0.!
0/!
b00000000000000000000000000000000 0!
b00000000000000000000000000000000 1!
02!
03!
b00000000000000000000000 4!
b0000000 5!
06!
b000 7!
b000 8!
b00000000000000000000000000000000 9!
b00000000000000000000000 :!
b0000000 ;!
b00 <!
0=!
0>!
0?!
b00 @!
0A!
0B!
b00000000000000000000000000000001 C!
b00000000000000000000000000000000 D!
b00000000000000000000000000000000 E!
b00000000000000000000000000000000 F!
b00000000000000000000000000000000 G!
b00000000000000000000000 H!
b0000000 I!
b00 J!
0K!
0L!
b00 M!
0N!
0O!
b00 P!
0Q!
b00000000000000000000000 R!
b0000000 S!
b00000000000000000000000000000001 T!
b00000000000000000000000000000000 U!
b00000000000000000000000000000000 V!
b00 W!
b00 X!
b00000 Y!
b00000 Z!
b00000000000000000000000000000000 [!
b00000000000000000000000000000000 \!
b00000000000000000000000000000000 ]!
b00000000000000000000000000000000 ^!
b00000000000000000000000000000000 _!
b00000000000000000000000000000000 `!
b00000000000000000000000000000000 a!
b00000000000000000000000000000000 b!
b00000000000000000000000000000000 c!
b00000000000000000000000000000000 d!
b00000000000000000000000000000000 e!
b00000000000000000000000000000000 f!
b00000000000000000000000000000000 g!
b00000000000000000000000000000000 h!
b00000000000000000000000000000000 i!
b00000000000000000000000000000000 j!
b00000000000000000000000000000000 k!
b00000000000000000000000000000000 l!
b00000000000000000000000000000000 m!
b00000000000000000000000000000000 n!
b00000000000000000000000000000000 o!
b00000000000000000000000000000000 p!
b00000000000000000000000000000000 q!
b00000000000000000000000000000000 r!
b00000000000000000000000000000000 s!
b00000000000000000000000000000000 t!
b00000000000000000000000000000000 u!
b00000000000000000000000000000000 v!
b00000000000000000000000000000000 w!
b00000000000000000000000000000000 x!
b00000000000000000000000000000000 y!
b00000000000000000000000000000000 z!
b00000000000000000000000000000000 {!
b00000 |!
0}!
0~!
0!"
0""
0#"
0$"
0%"
0&"
0'"
0("
b0000000000000000000000000000000000000000000000000000000000000000 )"
b0000000000000000000000000000000000000000000000000000000000000000 +"
b0000000000000000000000000000000000000000000000000000000000000000 -"
b0000000000000000000000000000000000000000000000000000000000000000 /"
b0000000000000000000000000000000000000000000000000000000000000000 1"
b0000000000000000000000000000000000000000000000000000000000000000 3"
b0000000000000000000000000000000000000000000000000000000000000000 5"
b0000000000000000000000000000000000000000000000000000000000000000 7"
b0000000000000000000000000000000000000000000000000000000000000000 9"
b0000000000000000000000000000000000000000000000000000000000000000 ;"
0="
0>"
0?"
r0 @"
r0 B"
r0 D"
r0 F"
0H"
1I"
0J"
b11111111111111111111111111111111 K"
b00000000000000000000000000000000 L"
b00000000000000000000000000000000 M"
b00000000000000000000000000000000 N"
b00000000000000000000000000000000 O"
b00000000000000000000000000000010 P"
b00000000000000000000000010000000 Q"
b00000000000000000000000000100000 R"
b00000000000000000000000000010100 S"
b00000000000000000000000000001010 T"
b00000000000000000000000100000000 U"
b00000000000000000000000000000010 V"
0W"
b00000000000000000000000010000000 X"
b00000000000000000000000000000111 Y"
b00000000000000000000000000010111 Z"
b00000000000000000000000000000001 ["
b00000000000000000000000000000001 \"
b00000000000000000000000000000010 ]"
b00000000000000000000000000000010 ^"
1_"
#5
b00000000000000000000000000100000 {!
1H"
#10
0H"
#15
1H"
#20
0H"
#25
1H"
#30
0H"
#35
1m
b01 P!
b10100 |!
1}!
b0000000000000000000000000000000000000000000000000000000000000001 )"
b0000000000000000000000000000000000000000000000000000000000000001 /"
b0000000000000000000000000000000000000000000000000000000000000001 1"
1="
1H"
0I"
#40
0H"
#45
b10011 |!
b0000000000000000000000000000000000000000000000000000000000000010 )"
b0000000000000000000000000000000000000000000000000000000000000010 1"
1H"
b00000000000000000000000000000000 K"
#50
0H"
#55
b10010 |!
b0000000000000000000000000000000000000000000000000000000000000011 )"
b0000000000000000000000000000000000000000000000000000000000000011 1"
1H"
#60
0H"
#65
b10001 |!
b0000000000000000000000000000000000000000000000000000000000000100 )"
b0000000000000000000000000000000000000000000000000000000000000100 1"
1H"
#70
0H"
#75
b10000 |!
b0000000000000000000000000000000000000000000000000000000000000101 )"
b0000000000000000000000000000000000000000000000000000000000000101 1"
1H"
#80
0H"
#85
b01111 |!
b0000000000000000000000000000000000000000000000000000000000000110 )"
b0000000000000000000000000000000000000000000000000000000000000110 1"
1H"
#90
0H"
#95
b01110 |!
b0000000000000000000000000000000000000000000000000000000000000111 )"
b0000000000000000000000000000000000000000000000000000000000000111 1"
1H"
#100
0H"
#105
b01101 |!
b0000000000000000000000000000000000000000000000000000000000001000 )"
b0000000000000000000000000000000000000000000000000000000000001000 1"
1H"
#110
0H"
#115
b01100 |!
b0000000000000000000000000000000000000000000000000000000000001001 )"
b0000000000000000000000000000000000000000000000000000000000001001 1"
1H"
#120
0H"
#125
b01011 |!
b0000000000000000000000000000000000000000000000000000000000001010 )"
b0000000000000000000000000000000000000000000000000000000000001010 1"
1H"
#130
0H"
#135
b01010 |!
b0000000000000000000000000000000000000000000000000000000000001011 )"
b0000000000000000000000000000000000000000000000000000000000001011 1"
1H"
#140
0H"
#145
b01001 |!
b0000000000000000000000000000000000000000000000000000000000001100 )"
b0000000000000000000000000000000000000000000000000000000000001100 1"
1H"
#150
0H"
#155
b01000 |!
b0000000000000000000000000000000000000000000000000000000000001101 )"
b0000000000000000000000000000000000000000000000000000000000001101 1"
1H"
#160
0H"
#165
b00111 |!
b0000000000000000000000000000000000000000000000000000000000001110 )"
b0000000000000000000000000000000000000000000000000000000000001110 1"
1H"
#170
0H"
#175
b00110 |!
b0000000000000000000000000000000000000000000000000000000000001111 )"
b0000000000000000000000000000000000000000000000000000000000001111 1"
1H"
#180
0H"
#185
b00101 |!
b0000000000000000000000000000000000000000000000000000000000010000 )"
b0000000000000000000000000000000000000000000000000000000000010000 1"
1H"
#190
0H"
#195
b00100 |!
b0000000000000000000000000000000000000000000000000000000000010001 )"
b0000000000000000000000000000000000000000000000000000000000010001 1"
1H"
#200
0H"
#205
b00011 |!
b0000000000000000000000000000000000000000000000000000000000010010 )"
b0000000000000000000000000000000000000000000000000000000000010010 1"
1H"
#210
0H"
#215
b00010 |!
b0000000000000000000000000000000000000000000000000000000000010011 )"
b0000000000000000000000000000000000000000000000000000000000010011 1"
1H"
#220
0H"
#225
b00001 |!
b0000000000000000000000000000000000000000000000000000000000010100 )"
b0000000000000000000000000000000000000000000000000000000000010100 1"
1H"
#230
0H"
#235
b00110100000010000000000000000101 l
1n
1v
b10 X!
b00000 |!
0}!
b0000000000000000000000000000000000000000000000000000000000010101 )"
b0000000000000000000000000000000000000000000000000000000000010101 1"
1H"
#240
0H"
#245
b00110100000010000000000000000101 6
17
18
19
1:
b1000010100 D
0h
0m
0n
0t
0v
0|
b01 J!
1K!
b01 M!
1O!
b10 P!
b00000000000000000000000000000001 U!
b00000000000000000000000000000001 V!
b10 W!
b10100 |!
1}!
b0000000000000000000000000000000000000000000000000000000000010110 )"
b0000000000000000000000000000000000000000000000000000000000010110 1"
1H"
#250
0H"
#255
b00000000000000000000000000000100 3
b00000000000000000000000000001000 4
b00000000000000000000000000001000 5
07
08
09
0:
b00000000000000000000000000000101 =
b00000000000000000000000000011000 >
b00110100000010000000000000000101 ?
b00000000000000000000000000000100 @
b00111 C
b0000000000 D
b10 E
b10100 G
b0000 U
1h
b00000000000000000000000000000100 k
1|
b010 }
b001101 %!
0+!
1,!
b011 -!
b00000000000000000000000000000100 G!
b0000001 I!
b00 J!
0K!
b00 M!
0O!
b00 P!
b00000000000000000000000000000000 U!
b01000 Z!
b10011 |!
1""
b0000000000000000000000000000000000000000000000000000000000010111 )"
0="
1H"
b00000000000000000000000000000001 L"
#260
0H"
#265
1m
1t
b00000000000000000000000000000100 w
b00000000000000000000000000000100 F!
b01 P!
b0000001 S!
b00 X!
b10010 |!
b0000000000000000000000000000000000000000000000000000000000011000 )"
b0000000000000000000000000000000000000000000000000000000000000010 /"
b0000000000000000000000000000000000000000000000000000000000010111 1"
1="
1H"
b00000000000000000000000000000100 K"
b00000000000000000000000000000000 L"
#270
0H"
#275
b00 W!
b10001 |!
b0000000000000000000000000000000000000000000000000000000000011001 )"
b0000000000000000000000000000000000000000000000000000000000011000 1"
1H"
#280
0H"
