functionalTB.vcd
$version Generated by VerilatedVcd $end
$timescale 1ps $end
 $scope module TOP $end
  $scope module functionalTB $end
   $var wire 1 G" clk $end
   $var wire 1 H" rst $end
   $var wire 1 I" perf_print $end
   $var wire 37 # checks[0] [36:0] $end
   $var wire 37 % checks[1] [36:0] $end
   $var wire 37 ' checks[2] [36:0] $end
   $var wire 37 ) checks[3] [36:0] $end
   $var wire 37 + checks[4] [36:0] $end
   $var wire 37 - checks[5] [36:0] $end
   $var wire 37 / checks[6] [36:0] $end
   $var wire 37 1 checks[7] [36:0] $end
   $var wire 32 J" prev_pc [31:0] $end
   $var wire 32 K" stable_count [31:0] $end
   $var wire 32 L" pass_count [31:0] $end
   $var wire 32 M" fail_count [31:0] $end
   $var wire 32 N" run_checks__Vstatic__actual [31:0] $end
   $scope module dut $end
    $var wire 32 Q" DATA_WIDTH [31:0] $end
    $var wire 32 Q" ADDR_WIDTH [31:0] $end
    $var wire 32 R" LATENCY [31:0] $end
    $var wire 32 S" MEM_DEPTH [31:0] $end
    $var wire 32 T" ICACHE_SIZE [31:0] $end
    $var wire 32 T" DCACHE_SIZE [31:0] $end
    $var wire 32 U" ICACHE_WAYS [31:0] $end
    $var wire 32 U" DCACHE_WAYS [31:0] $end
    $var wire 1 G" clk $end
    $var wire 1 H" rst $end
    $var wire 32 3 pcCurrent [31:0] $end
    $var wire 32 4 nextPc [31:0] $end
    $var wire 32 5 pcPlus4IF [31:0] $end
    $var wire 32 6 ic_inst [31:0] $end
    $var wire 1 7 ic_ready $end
    $var wire 1 8 pcWrite $end
    $var wire 1 8 pcWrite_final $end
    $var wire 1 V" IFflush $end
    $var wire 1 9 hazardSel $end
    $var wire 1 : IFIDwrite $end
    $var wire 1 : IFIDwrite_final $end
    $var wire 1 V" pcSrcID $end
    $var wire 32 ; regData1ID [31:0] $end
    $var wire 32 < regData2ID [31:0] $end
    $var wire 32 = signExtImmID [31:0] $end
    $var wire 32 > branchTargetID [31:0] $end
    $var wire 32 ? instID [31:0] $end
    $var wire 32 @ pcPlus4ID [31:0] $end
    $var wire 2 A WBID [1:0] $end
    $var wire 3 B MEMID [2:0] $end
    $var wire 5 C EXID [4:0] $end
    $var wire 10 D finalCRLTID [9:0] $end
    $var wire 2 E WBEX [1:0] $end
    $var wire 3 F MEMEX [2:0] $end
    $var wire 5 G EXEX [4:0] $end
    $var wire 32 H regData1EX [31:0] $end
    $var wire 32 I regData2EX [31:0] $end
    $var wire 32 J signExtImmEX [31:0] $end
    $var wire 5 K RsEX [4:0] $end
    $var wire 5 L RtEX [4:0] $end
    $var wire 5 M RdEX [4:0] $end
    $var wire 6 N FuncEX [5:0] $end
    $var wire 2 O forwardA [1:0] $end
    $var wire 2 P forwardB [1:0] $end
    $var wire 32 Q AluMuxAout [31:0] $end
    $var wire 32 R AluMuxBFwd [31:0] $end
    $var wire 32 S AluInb [31:0] $end
    $var wire 32 T AluResultEX [31:0] $end
    $var wire 4 U AluCtrlEX [3:0] $end
    $var wire 5 V WriteRegEX [4:0] $end
    $var wire 32 W branchTargetEX [31:0] $end
    $var wire 1 X pcSrcEX $end
    $var wire 1 Y IFflushEX $end
    $var wire 2 Z WBMEM [1:0] $end
    $var wire 3 [ MEMMEM [2:0] $end
    $var wire 32 \ AluResMEM [31:0] $end
    $var wire 32 ] writeDataMEM [31:0] $end
    $var wire 5 ^ writeRegMEM [4:0] $end
    $var wire 32 _ dc_rdata [31:0] $end
    $var wire 1 ` dc_ready $end
    $var wire 1 a mem_read_MEM $end
    $var wire 1 b mem_write_MEM $end
    $var wire 2 c WBWB [1:0] $end
    $var wire 32 d AluResWB [31:0] $end
    $var wire 32 e MEMDataWB [31:0] $end
    $var wire 5 f writeRegWB [4:0] $end
    $var wire 32 g finalResultWB [31:0] $end
    $var wire 1 h ic_stall $end
    $var wire 1 i dc_stall $end
    $var wire 1 j dc_done $end
    $var wire 32 k ic_mem_addr [31:0] $end
    $var wire 32 l ic_mem_rdata [31:0] $end
    $var wire 1 m ic_mem_read $end
    $var wire 1 n ic_mem_ready $end
    $var wire 32 o dc_mem_addr [31:0] $end
    $var wire 32 l dc_mem_rdata [31:0] $end
    $var wire 32 p dc_mem_wdata [31:0] $end
    $var wire 1 q dc_mem_read $end
    $var wire 1 r dc_mem_write $end
    $var wire 1 s dc_mem_ready $end
    $var wire 1 t umem_read $end
    $var wire 1 u umem_write $end
    $var wire 1 v umem_ready $end
    $var wire 32 w umem_addr [31:0] $end
    $var wire 32 x umem_wdata [31:0] $end
    $var wire 32 l umem_rdata [31:0] $end
    $var wire 1 y regWrite_en $end
    $var wire 1 z dc_ready_eff $end
    $var wire 1 i stall_WB $end
    $scope module ALUDec $end
     $var wire 6 N Func [5:0] $end
     $var wire 3 { AluOp [2:0] $end
     $var wire 4 U AluControl [3:0] $end
    $upscope $end
    $scope module ALUUnit $end
     $var wire 32 Q A [31:0] $end
     $var wire 32 S B [31:0] $end
     $var wire 4 U AluControl [3:0] $end
     $var wire 32 T Result [31:0] $end
     $var wire 1 | Zero $end
     $var wire 1 } Overflow $end
     $var wire 32 ~ sum [31:0] $end
     $var wire 32 !! B_sum_operand [31:0] $end
     $var wire 1 "! carry_out $end
    $upscope $end
    $scope module CU $end
     $var wire 6 #! OpCode [5:0] $end
     $var wire 2 A wb_bundle [1:0] $end
     $var wire 3 B m_bundle [2:0] $end
     $var wire 5 C ex_bundle [4:0] $end
     $var wire 1 $! RegWrite $end
     $var wire 1 %! MemtoReg $end
     $var wire 1 &! Branch $end
     $var wire 1 '! MemRead $end
     $var wire 1 (! MemWrite $end
     $var wire 1 )! RegDst $end
     $var wire 1 *! ALUSrc $end
     $var wire 3 +! ALUOp [2:0] $end
    $upscope $end
    $scope module D_CACHE $end
     $var wire 32 Q" ADDR_WIDTH [31:0] $end
     $var wire 32 Q" DATA_WIDTH [31:0] $end
     $var wire 32 T" CACHE_SIZE [31:0] $end
     $var wire 32 R" LATENCY [31:0] $end
     $var wire 32 U" NUM_WAYS [31:0] $end
     $var wire 1 G" clk $end
     $var wire 1 H" rst $end
     $var wire 32 \ cpu_addr [31:0] $end
     $var wire 32 ] cpu_wdata [31:0] $end
     $var wire 1 ,! cpu_read $end
     $var wire 1 -! cpu_write $end
     $var wire 32 _ cpu_rdata [31:0] $end
     $var wire 1 ` cpu_ready $end
     $var wire 32 o mem_addr [31:0] $end
     $var wire 32 p mem_wdata [31:0] $end
     $var wire 1 q mem_read $end
     $var wire 1 r mem_write $end
     $var wire 32 l mem_rdata [31:0] $end
     $var wire 1 s mem_ready $end
     $var wire 1 q dcache_req_valid $end
     $var wire 32 o dcache_req_addr [31:0] $end
     $var wire 32 p dcache_req_wdata [31:0] $end
     $var wire 1 r dcache_req_write $end
     $var wire 32 l dcache_req_rdata [31:0] $end
     $var wire 1 s dcache_req_ready $end
     $scope module ctrl $end
      $var wire 32 Q" ADDR_WIDTH [31:0] $end
      $var wire 32 Q" DATA_WIDTH [31:0] $end
      $var wire 32 T" CACHE_SIZE [31:0] $end
      $var wire 32 U" NUM_WAYS [31:0] $end
      $var wire 1 G" clk $end
      $var wire 1 H" rst $end
      $var wire 32 \ cpu_addr [31:0] $end
      $var wire 32 ] cpu_wdata [31:0] $end
      $var wire 1 ,! cpu_read $end
      $var wire 1 -! cpu_write $end
      $var wire 32 _ cpu_rdata [31:0] $end
      $var wire 1 ` cpu_ready $end
      $var wire 32 o mem_addr [31:0] $end
      $var wire 32 p mem_wdata [31:0] $end
      $var wire 1 q mem_read $end
      $var wire 1 r mem_write $end
      $var wire 32 l mem_rdata [31:0] $end
      $var wire 1 s mem_ready $end
      $var wire 32 W" NUM_SETS [31:0] $end
      $var wire 32 X" SET_BITS [31:0] $end
      $var wire 32 Y" TAG_BITS [31:0] $end
      $var wire 32 Z" WAY_BITS [31:0] $end
      $var wire 32 .! addr_reg [31:0] $end
      $var wire 32 /! wdata_reg [31:0] $end
      $var wire 1 0! is_read_op $end
      $var wire 1 1! is_write_op $end
      $var wire 23 2! fill_tag [22:0] $end
      $var wire 7 3! fill_set [6:0] $end
      $var wire 1 4! active_way [0:0] $end
      $var wire 3 5! state [2:0] $end
      $var wire 3 6! next_state [2:0] $end
      $var wire 32 7! addr_active [31:0] $end
      $var wire 23 8! current_tag [22:0] $end
      $var wire 7 9! current_set [6:0] $end
      $var wire 2 :! way_hit [1:0] $end
      $var wire 1 ;! cacheHit $end
      $var wire 1 <! hit_way_index [0:0] $end
      $var wire 1 =! victim_way [0:0] $end
      $var wire 2 >! valid_ways_current [1:0] $end
      $var wire 1 ?! lru_update_en $end
      $var wire 1 @! lru_access_way [0:0] $end
      $scope module lru $end
       $var wire 32 U" NUM_WAYS [31:0] $end
       $var wire 32 W" NUM_SETS [31:0] $end
       $var wire 1 G" clk $end
       $var wire 1 H" rst $end
       $var wire 1 @! access_way [0:0] $end
       $var wire 7 9! set_idx [6:0] $end
       $var wire 1 ?! update $end
       $var wire 2 >! valid_ways [1:0] $end
       $var wire 1 =! victim_way [0:0] $end
       $var wire 32 [" TREE_DEPTH [31:0] $end
       $scope module unnamedblk1 $end
        $var wire 32 A! temp_node [31:0] $end
        $scope module unnamedblk2 $end
         $var wire 32 \" i [31:0] $end
        $upscope $end
        $scope module unnamedblk3 $end
         $var wire 32 [" j [31:0] $end
        $upscope $end
       $upscope $end
       $scope module unnamedblk4 $end
        $var wire 32 B! temp_node [31:0] $end
        $scope module unnamedblk5 $end
         $var wire 32 C! iterator [31:0] $end
        $upscope $end
       $upscope $end
      $upscope $end
      $scope module unnamedblk1 $end
       $var wire 32 ]" i [31:0] $end
      $upscope $end
     $upscope $end
    $upscope $end
    $scope module ICACHE $end
     $var wire 32 Q" ADDR_WIDTH [31:0] $end
     $var wire 32 Q" DATA_WIDTH [31:0] $end
     $var wire 32 T" CACHE_SIZE [31:0] $end
     $var wire 32 R" LATENCY [31:0] $end
     $var wire 32 U" NUM_WAYS [31:0] $end
     $var wire 1 G" clk $end
     $var wire 1 H" rst $end
     $var wire 32 3 cpu_addr [31:0] $end
     $var wire 1 ^" cpu_read $end
     $var wire 32 6 cpu_rdata [31:0] $end
     $var wire 1 7 cpu_ready $end
     $var wire 32 k mem_addr [31:0] $end
     $var wire 1 m mem_read $end
     $var wire 32 l mem_rdata [31:0] $end
     $var wire 1 n mem_ready $end
     $var wire 32 k m_addr [31:0] $end
     $var wire 32 l m_rdata [31:0] $end
     $var wire 1 m m_read $end
     $var wire 1 n m_ready $end
     $scope module ctrl $end
      $var wire 32 Q" ADDR_WIDTH [31:0] $end
      $var wire 32 Q" DATA_WIDTH [31:0] $end
      $var wire 32 T" CACHE_SIZE [31:0] $end
      $var wire 32 U" NUM_WAYS [31:0] $end
      $var wire 1 G" clk $end
      $var wire 1 H" rst $end
      $var wire 32 3 cpu_addr [31:0] $end
      $var wire 1 ^" cpu_read $end
      $var wire 32 6 cpu_rdata [31:0] $end
      $var wire 1 7 cpu_ready $end
      $var wire 32 k mem_addr [31:0] $end
      $var wire 1 m mem_read $end
      $var wire 32 l mem_rdata [31:0] $end
      $var wire 1 n mem_ready $end
      $var wire 32 W" NUM_SETS [31:0] $end
      $var wire 32 X" SET_BITS [31:0] $end
      $var wire 32 Y" TAG_BITS [31:0] $end
      $var wire 32 Z" WAY_BITS [31:0] $end
      $var wire 32 D! addr_reg [31:0] $end
      $var wire 32 E! addr_active [31:0] $end
      $var wire 23 F! current_tag [22:0] $end
      $var wire 7 G! current_set [6:0] $end
      $var wire 2 H! way_hit [1:0] $end
      $var wire 1 I! cacheHit $end
      $var wire 1 J! hit_way_index [0:0] $end
      $var wire 2 K! valid_vec [1:0] $end
      $var wire 1 L! victim_way [0:0] $end
      $var wire 1 M! lru_update $end
      $var wire 2 N! state [1:0] $end
      $var wire 1 O! active_way [0:0] $end
      $var wire 23 P! fill_tag [22:0] $end
      $var wire 7 Q! fill_set [6:0] $end
      $var wire 32 6 cpu_rdata_reg [31:0] $end
      $scope module lru $end
       $var wire 32 U" NUM_WAYS [31:0] $end
       $var wire 32 W" NUM_SETS [31:0] $end
       $var wire 1 G" clk $end
       $var wire 1 H" rst $end
       $var wire 1 J! access_way [0:0] $end
       $var wire 7 G! set_idx [6:0] $end
       $var wire 1 M! update $end
       $var wire 2 K! valid_ways [1:0] $end
       $var wire 1 L! victim_way [0:0] $end
       $var wire 32 [" TREE_DEPTH [31:0] $end
       $scope module unnamedblk1 $end
        $var wire 32 R! temp_node [31:0] $end
        $scope module unnamedblk2 $end
         $var wire 32 \" i [31:0] $end
        $upscope $end
        $scope module unnamedblk3 $end
         $var wire 32 [" j [31:0] $end
        $upscope $end
       $upscope $end
       $scope module unnamedblk4 $end
        $var wire 32 S! temp_node [31:0] $end
        $scope module unnamedblk5 $end
         $var wire 32 T! iterator [31:0] $end
        $upscope $end
       $upscope $end
      $upscope $end
      $scope module unnamedblk1 $end
       $var wire 32 O" w [31:0] $end
       $scope module unnamedblk2 $end
        $var wire 32 P" s [31:0] $end
       $upscope $end
      $upscope $end
      $scope module unnamedblk3 $end
       $var wire 32 ]" i [31:0] $end
      $upscope $end
     $upscope $end
    $upscope $end
    $scope module MemoryArbitrator_instance $end
     $var wire 1 G" clk $end
     $var wire 1 H" rst $end
     $var wire 1 m ic_read $end
     $var wire 32 k ic_addr [31:0] $end
     $var wire 1 n ic_ready $end
     $var wire 32 l ic_rdata [31:0] $end
     $var wire 1 q dc_read $end
     $var wire 1 r dc_write $end
     $var wire 32 o dc_addr [31:0] $end
     $var wire 32 p dc_wdata [31:0] $end
     $var wire 1 s dc_ready $end
     $var wire 32 l dc_rdata [31:0] $end
     $var wire 1 t umem_read $end
     $var wire 1 u umem_write $end
     $var wire 32 w umem_addr [31:0] $end
     $var wire 32 x umem_wdata [31:0] $end
     $var wire 1 v umem_ready $end
     $var wire 32 l umem_rdata [31:0] $end
     $var wire 2 U! state [1:0] $end
     $var wire 2 V! next_state [1:0] $end
    $upscope $end
    $scope module Reg_Files $end
     $var wire 1 G" clk $end
     $var wire 1 H" rst $end
     $var wire 1 y RegWrite $end
     $var wire 5 W! ReadReg1 [4:0] $end
     $var wire 5 X! ReadReg2 [4:0] $end
     $var wire 5 f WriteReg [4:0] $end
     $var wire 32 ; ReadData1 [31:0] $end
     $var wire 32 < ReadData2 [31:0] $end
     $var wire 32 g WriteData [31:0] $end
     $var wire 32 Y! Register[0] [31:0] $end
     $var wire 32 Z! Register[1] [31:0] $end
     $var wire 32 [! Register[2] [31:0] $end
     $var wire 32 \! Register[3] [31:0] $end
     $var wire 32 ]! Register[4] [31:0] $end
     $var wire 32 ^! Register[5] [31:0] $end
     $var wire 32 _! Register[6] [31:0] $end
     $var wire 32 `! Register[7] [31:0] $end
     $var wire 32 a! Register[8] [31:0] $end
     $var wire 32 b! Register[9] [31:0] $end
     $var wire 32 c! Register[10] [31:0] $end
     $var wire 32 d! Register[11] [31:0] $end
     $var wire 32 e! Register[12] [31:0] $end
     $var wire 32 f! Register[13] [31:0] $end
     $var wire 32 g! Register[14] [31:0] $end
     $var wire 32 h! Register[15] [31:0] $end
     $var wire 32 i! Register[16] [31:0] $end
     $var wire 32 j! Register[17] [31:0] $end
     $var wire 32 k! Register[18] [31:0] $end
     $var wire 32 l! Register[19] [31:0] $end
     $var wire 32 m! Register[20] [31:0] $end
     $var wire 32 n! Register[21] [31:0] $end
     $var wire 32 o! Register[22] [31:0] $end
     $var wire 32 p! Register[23] [31:0] $end
     $var wire 32 q! Register[24] [31:0] $end
     $var wire 32 r! Register[25] [31:0] $end
     $var wire 32 s! Register[26] [31:0] $end
     $var wire 32 t! Register[27] [31:0] $end
     $var wire 32 u! Register[28] [31:0] $end
     $var wire 32 v! Register[29] [31:0] $end
     $var wire 32 w! Register[30] [31:0] $end
     $var wire 32 x! Register[31] [31:0] $end
     $var wire 32 y! i [31:0] $end
    $upscope $end
    $scope module UnifiedMem $end
     $var wire 32 R" LATENCY [31:0] $end
     $var wire 32 Q" ADDR_WIDTH [31:0] $end
     $var wire 32 Q" DATA_WIDTH [31:0] $end
     $var wire 32 S" MEM_DEPTH [31:0] $end
     $var wire 1 G" clk $end
     $var wire 1 H" rst $end
     $var wire 1 t umem_read $end
     $var wire 1 u umem_write $end
     $var wire 32 w umem_addr [31:0] $end
     $var wire 32 x umem_wdata [31:0] $end
     $var wire 1 v umem_ready $end
     $var wire 32 l umem_rdata [31:0] $end
     $var wire 5 z! timer [4:0] $end
     $var wire 1 {! busy $end
    $upscope $end
    $scope module forward_unit_instance $end
     $var wire 5 K rs_EX [4:0] $end
     $var wire 5 L rt_EX [4:0] $end
     $var wire 5 ^ rd_MEM [4:0] $end
     $var wire 5 f rd_WB [4:0] $end
     $var wire 1 |! regwrite_MEM $end
     $var wire 1 }! regwrite_WB $end
     $var wire 1 ~! memRead_MEM $end
     $var wire 2 O forwardA [1:0] $end
     $var wire 2 P forwardB [1:0] $end
    $upscope $end
    $scope module hdu_instance $end
     $var wire 5 W! IF_ID_rs [4:0] $end
     $var wire 5 X! IF_ID_rt [4:0] $end
     $var wire 5 L ID_EX_rt [4:0] $end
     $var wire 5 M ID_EX_rd [4:0] $end
     $var wire 5 ^ EX_MEM_rd [4:0] $end
     $var wire 1 !" ID_EX_regWrite $end
     $var wire 1 |! EX_MEM_regWrite $end
     $var wire 1 }! MEM_WB_regWrite $end
     $var wire 1 ~! ID_EX_memRead $end
     $var wire 1 &! isBranch $end
     $var wire 1 7 ic_ready $end
     $var wire 1 z dc_ready $end
     $var wire 1 ~! mem_read_EX $end
     $var wire 1 "" mem_write_EX $end
     $var wire 2 O forwardA [1:0] $end
     $var wire 2 P forwardB [1:0] $end
     $var wire 1 8 pcWrite $end
     $var wire 1 : IF_ID_write $end
     $var wire 1 9 hazardSel $end
     $var wire 1 h ic_stall $end
     $var wire 1 i dc_stall $end
     $var wire 1 #" load_use_hazard $end
     $var wire 1 $" branch_hazard_EX $end
     $var wire 1 %" branch_hazard_MEM $end
    $upscope $end
    $scope module pc $end
     $var wire 32 4 PCInput [31:0] $end
     $var wire 1 8 PCWrite $end
     $var wire 1 G" clk $end
     $var wire 1 H" reset $end
     $var wire 32 3 PCaddress [31:0] $end
     $var wire 32 3 PCRegister [31:0] $end
    $upscope $end
   $upscope $end
   $scope module perfCounter $end
    $var wire 1 G" clk $end
    $var wire 1 H" rst $end
    $var wire 1 h ic_stall $end
    $var wire 1 i dc_stall $end
    $var wire 1 7 ic_ready $end
    $var wire 1 ` dc_ready $end
    $var wire 1 &" reg_write_wb $end
    $var wire 5 f write_reg_wb [4:0] $end
    $var wire 1 a mem_read_mem $end
    $var wire 1 b mem_write_mem $end
    $var wire 1 V" branch_taken $end
    $var wire 1 '" is_branchID $end
    $var wire 1 I" perf_print $end
    $var wire 64 (" total_cycles [63:0] $end
    $var wire 64 *" instruction_retired [63:0] $end
    $var wire 64 ," ic_hits [63:0] $end
    $var wire 64 ." ic_misses [63:0] $end
    $var wire 64 0" ic_stall_cycles [63:0] $end
    $var wire 64 2" dc_hits [63:0] $end
    $var wire 64 4" dc_misses [63:0] $end
    $var wire 64 6" dc_stall_cycles [63:0] $end
    $var wire 64 8" branch_instructions [63:0] $end
    $var wire 64 :" branch_mispredictions [63:0] $end
    $var wire 1 <" ic_stall_prev $end
    $var wire 1 =" dc_stall_prev $end
    $var wire 1 >" branch_taken_prev $end
    $scope module unnamedblk1 $end
     $var real 64 ?" CPI $end
     $var real 64 A" ic_miss_rate $end
     $var real 64 C" dc_miss_rate $end
     $var real 64 E" branch_mispredict_rate $end
    $upscope $end
   $upscope $end
  $upscope $end
 $upscope $end
$enddefinitions $end


#0
b0100000000000000000000000000000000101 #
b0100100000000000000000000000000001010 %
b0101000000000000000000000000000001111 '
b0101100000000000000000000000001101001 )
b0110000000000000000000000000000001111 +
b0110100000000000000000000000000000000 -
b0111000000000000000000000000000001111 /
b0111100000000000000000000000000000000 1
b00000000000000000000000000000000 3
b00000000000000000000000000000100 4
b00000000000000000000000000000100 5
b00000000000000000000000000000000 6
07
08
09
0:
b00000000000000000000000000000000 ;
b00000000000000000000000000000000 <
b00000000000000000000000000000000 =
b00000000000000000000000000000000 >
b00000000000000000000000000000000 ?
b00000000000000000000000000000000 @
b10 A
b000 B
b10100 C
b0000000000 D
b00 E
b000 F
b00000 G
b00000000000000000000000000000000 H
b00000000000000000000000000000000 I
b00000000000000000000000000000000 J
b00000 K
b00000 L
b00000 M
b000000 N
b00 O
b00 P
b00000000000000000000000000000000 Q
b00000000000000000000000000000000 R
b00000000000000000000000000000000 S
b00000000000000000000000000000000 T
b0010 U
b00000 V
b00000000000000000000000000000000 W
0X
0Y
b00 Z
b000 [
b00000000000000000000000000000000 \
b00000000000000000000000000000000 ]
b00000 ^
b00000000000000000000000000000000 _
0`
0a
0b
b00 c
b00000000000000000000000000000000 d
b00000000000000000000000000000000 e
b00000 f
b00000000000000000000000000000000 g
1h
0i
0j
b00000000000000000000000000000000 k
b00000000000000000000000000000000 l
0m
0n
b00000000000000000000000000000000 o
b00000000000000000000000000000000 p
0q
0r
0s
1t
0u
0v
b00000000000000000000000000000000 w
b00000000000000000000000000000000 x
0y
0z
b000 {
1|
0}
b00000000000000000000000000000000 ~
b00000000000000000000000000000000 !!
0"!
b000000 #!
1$!
0%!
0&!
0'!
0(!
1)!
0*!
b010 +!
0,!
0-!
b00000000000000000000000000000000 .!
b00000000000000000000000000000000 /!
00!
01!
b00000000000000000000000 2!
b0000000 3!
04!
b000 5!
b000 6!
b00000000000000000000000000000000 7!
b00000000000000000000000 8!
b0000000 9!
b00 :!
0;!
0<!
0=!
b00 >!
0?!
0@!
b00000000000000000000000000000001 A!
b00000000000000000000000000000000 B!
b00000000000000000000000000000000 C!
b00000000000000000000000000000000 D!
b00000000000000000000000000000000 E!
b00000000000000000000000 F!
b0000000 G!
b00 H!
0I!
0J!
b00 K!
0L!
0M!
b00 N!
0O!
b00000000000000000000000 P!
b0000000 Q!
b00000000000000000000000000000001 R!
b00000000000000000000000000000000 S!
b00000000000000000000000000000000 T!
b00 U!
b00 V!
b00000 W!
b00000 X!
b00000000000000000000000000000000 Y!
b00000000000000000000000000000000 Z!
b00000000000000000000000000000000 [!
b00000000000000000000000000000000 \!
b00000000000000000000000000000000 ]!
b00000000000000000000000000000000 ^!
b00000000000000000000000000000000 _!
b00000000000000000000000000000000 `!
b00000000000000000000000000000000 a!
b00000000000000000000000000000000 b!
b00000000000000000000000000000000 c!
b00000000000000000000000000000000 d!
b00000000000000000000000000000000 e!
b00000000000000000000000000000000 f!
b00000000000000000000000000000000 g!
b00000000000000000000000000000000 h!
b00000000000000000000000000000000 i!
b00000000000000000000000000000000 j!
b00000000000000000000000000000000 k!
b00000000000000000000000000000000 l!
b00000000000000000000000000000000 m!
b00000000000000000000000000000000 n!
b00000000000000000000000000000000 o!
b00000000000000000000000000000000 p!
b00000000000000000000000000000000 q!
b00000000000000000000000000000000 r!
b00000000000000000000000000000000 s!
b00000000000000000000000000000000 t!
b00000000000000000000000000000000 u!
b00000000000000000000000000000000 v!
b00000000000000000000000000000000 w!
b00000000000000000000000000000000 x!
b00000000000000000000000000000000 y!
b00000 z!
0{!
0|!
0}!
0~!
0!"
0""
0#"
0$"
0%"
0&"
0'"
b0000000000000000000000000000000000000000000000000000000000000000 ("
b0000000000000000000000000000000000000000000000000000000000000000 *"
b0000000000000000000000000000000000000000000000000000000000000000 ,"
b0000000000000000000000000000000000000000000000000000000000000000 ."
b0000000000000000000000000000000000000000000000000000000000000000 0"
b0000000000000000000000000000000000000000000000000000000000000000 2"
b0000000000000000000000000000000000000000000000000000000000000000 4"
b0000000000000000000000000000000000000000000000000000000000000000 6"
b0000000000000000000000000000000000000000000000000000000000000000 8"
b0000000000000000000000000000000000000000000000000000000000000000 :"
0<"
0="
0>"
r0 ?"
r0 A"
r0 C"
r0 E"
0G"
1H"
0I"
b11111111111111111111111111111111 J"
b00000000000000000000000000000000 K"
b00000000000000000000000000000000 L"
b00000000000000000000000000000000 M"
b00000000000000000000000000000000 N"
b00000000000000000000000000000010 O"
b00000000000000000000000010000000 P"
b00000000000000000000000000100000 Q"
b00000000000000000000000000010100 R"
b00000000000000000000000000001010 S"
b00000000000000000000000100000000 T"
b00000000000000000000000000000010 U"
0V"
b00000000000000000000000010000000 W"
b00000000000000000000000000000111 X"
b00000000000000000000000000010111 Y"
b00000000000000000000000000000001 Z"
b00000000000000000000000000000001 ["
b00000000000000000000000000000010 \"
b00000000000000000000000000000010 ]"
1^"
#5
b00000000000000000000000000100000 y!
1G"
#10
0G"
#15
1G"
#20
0G"
#25
1G"
#30
0G"
#35
1m
b01 N!
b10100 z!
1{!
b0000000000000000000000000000000000000000000000000000000000000001 ("
b0000000000000000000000000000000000000000000000000000000000000001 ."
b0000000000000000000000000000000000000000000000000000000000000001 0"
1<"
1G"
0H"
#40
0G"
#45
b10011 z!
b0000000000000000000000000000000000000000000000000000000000000010 ("
b0000000000000000000000000000000000000000000000000000000000000010 0"
1G"
b00000000000000000000000000000000 J"
#50
0G"
#55
b10010 z!
b0000000000000000000000000000000000000000000000000000000000000011 ("
b0000000000000000000000000000000000000000000000000000000000000011 0"
1G"
#60
0G"
#65
b10001 z!
b0000000000000000000000000000000000000000000000000000000000000100 ("
b0000000000000000000000000000000000000000000000000000000000000100 0"
1G"
#70
0G"
#75
b10000 z!
b0000000000000000000000000000000000000000000000000000000000000101 ("
b0000000000000000000000000000000000000000000000000000000000000101 0"
1G"
#80
0G"
#85
b01111 z!
b0000000000000000000000000000000000000000000000000000000000000110 ("
b0000000000000000000000000000000000000000000000000000000000000110 0"
1G"
#90
0G"
#95
b01110 z!
b0000000000000000000000000000000000000000000000000000000000000111 ("
b0000000000000000000000000000000000000000000000000000000000000111 0"
1G"
#100
0G"
#105
b01101 z!
b0000000000000000000000000000000000000000000000000000000000001000 ("
b0000000000000000000000000000000000000000000000000000000000001000 0"
1G"
#110
0G"
#115
b01100 z!
b0000000000000000000000000000000000000000000000000000000000001001 ("
b0000000000000000000000000000000000000000000000000000000000001001 0"
1G"
#120
0G"
#125
b01011 z!
b0000000000000000000000000000000000000000000000000000000000001010 ("
b0000000000000000000000000000000000000000000000000000000000001010 0"
1G"
#130
0G"
#135
b01010 z!
b0000000000000000000000000000000000000000000000000000000000001011 ("
b0000000000000000000000000000000000000000000000000000000000001011 0"
1G"
#140
0G"
#145
b01001 z!
b0000000000000000000000000000000000000000000000000000000000001100 ("
b0000000000000000000000000000000000000000000000000000000000001100 0"
1G"
#150
0G"
#155
b01000 z!
b0000000000000000000000000000000000000000000000000000000000001101 ("
b0000000000000000000000000000000000000000000000000000000000001101 0"
1G"
#160
0G"
#165
b00111 z!
b0000000000000000000000000000000000000000000000000000000000001110 ("
b0000000000000000000000000000000000000000000000000000000000001110 0"
1G"
#170
0G"
#175
b00110 z!
b0000000000000000000000000000000000000000000000000000000000001111 ("
b0000000000000000000000000000000000000000000000000000000000001111 0"
1G"
#180
0G"
#185
b00101 z!
b0000000000000000000000000000000000000000000000000000000000010000 ("
b0000000000000000000000000000000000000000000000000000000000010000 0"
1G"
#190
0G"
#195
b00100 z!
b0000000000000000000000000000000000000000000000000000000000010001 ("
b0000000000000000000000000000000000000000000000000000000000010001 0"
1G"
#200
0G"
#205
b00011 z!
b0000000000000000000000000000000000000000000000000000000000010010 ("
b0000000000000000000000000000000000000000000000000000000000010010 0"
1G"
#210
0G"
#215
b00010 z!
b0000000000000000000000000000000000000000000000000000000000010011 ("
b0000000000000000000000000000000000000000000000000000000000010011 0"
1G"
#220
0G"
#225
b00001 z!
b0000000000000000000000000000000000000000000000000000000000010100 ("
b0000000000000000000000000000000000000000000000000000000000010100 0"
1G"
#230
0G"
#235
b00110100000010000000000000000101 l
1n
1v
b10 V!
b00000 z!
0{!
b0000000000000000000000000000000000000000000000000000000000010101 ("
b0000000000000000000000000000000000000000000000000000000000010101 0"
1G"
#240
0G"
#245
b00110100000010000000000000000101 6
17
18
19
1:
b1000010100 D
0h
0m
0n
0t
0v
b01 H!
1I!
b01 K!
1M!
b10 N!
b00000000000000000000000000000001 S!
b00000000000000000000000000000001 T!
b10 U!
b10100 z!
1{!
b0000000000000000000000000000000000000000000000000000000000010110 ("
b0000000000000000000000000000000000000000000000000000000000010110 0"
1G"
#250
0G"
#255
b00000000000000000000000000000100 3
b00000000000000000000000000001000 4
b00000000000000000000000000001000 5
07
08
09
0:
b00000000000000000000000000000101 =
b00000000000000000000000000011000 >
b00110100000010000000000000000101 ?
b00000000000000000000000000000100 @
b00111 C
b0000000000 D
b10 E
b10100 G
b0000 U
1h
b00000000000000000000000000000100 k
b010 {
b001101 #!
0)!
1*!
b011 +!
b00000000000000000000000000000100 E!
b0000001 G!
b00 H!
0I!
b00 K!
0M!
b00 N!
b00000000000000000000000000000000 S!
b01000 X!
b10011 z!
1!"
b0000000000000000000000000000000000000000000000000000000000010111 ("
0<"
1G"
b00000000000000000000000000000001 K"
#260
0G"
#265
1m
1t
b00000000000000000000000000000100 w
b00000000000000000000000000000100 D!
b01 N!
b0000001 Q!
b00 V!
b10010 z!
b0000000000000000000000000000000000000000000000000000000000011000 ("
b0000000000000000000000000000000000000000000000000000000000000010 ."
b0000000000000000000000000000000000000000000000000000000000010111 0"
1<"
1G"
b00000000000000000000000000000100 J"
b00000000000000000000000000000000 K"
#270
0G"
#275
b00 U!
b10001 z!
b0000000000000000000000000000000000000000000000000000000000011001 ("
b0000000000000000000000000000000000000000000000000000000000011000 0"
1G"
#280
0G"
#285
b10000 z!
b0000000000000000000000000000000000000000000000000000000000011010 ("
b0000000000000000000000000000000000000000000000000000000000011001 0"
1G"
#290
0G"
